module gitlab.com/esd-gpos/user

go 1.13

require (
	github.com/gin-gonic/gin v1.5.0
	github.com/go-playground/universal-translator v0.17.0 // indirect
	github.com/golang/protobuf v1.3.4 // indirect
	github.com/json-iterator/go v1.1.9 // indirect
	github.com/leodido/go-urn v1.2.0 // indirect
	github.com/mattn/go-isatty v0.0.12 // indirect
	github.com/modern-go/concurrent v0.0.0-20180306012644-bacd9c7ef1dd // indirect
	github.com/modern-go/reflect2 v1.0.1 // indirect
	go.mongodb.org/mongo-driver v1.3.0
	golang.org/x/sys v0.0.0-20200223170610-d5e6a3e2c0ae // indirect
	gopkg.in/go-playground/validator.v9 v9.31.0
	gopkg.in/yaml.v2 v2.2.8 // indirect
)
